0, 0, 0,-1,-1,-1,-1, 0, 0, 0,-1,-1,-1,-1,-1,-1,-1,-1,-1,-1,-1,-1,-1,-1,-1,-1,-1,-1,-1,-1,-1,-1,-1, 5,-1,-1,-1,-1,-1,0,
0, 0, 0,-1,-1,-1,-1, 0, 0, 0, 5,-1,-1,-1,-1,-1,-1,-1,-1,-1,-1,-1,-1,-1,-1,-1,-1,-1,-1,-1,-1,-1,-1, 0, 5,-1,-1,-1,-1,0,
0, 0, 0,-1,-1,-1,-1, 0, 0, 0, 0, 5,-1,-1,-1,-1,-1,-1,-1,-1,-1,-1,-1,-1,-1,-1,-1,-1, 4,-1,-1,-1,-1, 0, 0, 5,-1,-1,-1,0,
0, 0, 0, 8, 8,-1,-1, 0, 0, 0, 0, 0, 5,-1,-1,-1,-1,-1,-1,-1,-1,-1,-1,-1,-1,-1,-1,-1, 0,-1,-1,-1, 4, 0, 0, 0,-1,-1,-1,0,
0, 0, 0,-1,-1,-1,-1, 0, 0, 0, 0, 0, 0, 5,-1,-1,-1,-1,-1,-1,-1,-1,-1,-1,-1,-1,-1, 4, 7,-1,-1,-1, 0, 0, 0, 0,-1,-1,-1,0,
0, 0, 0,-1,-1,-1,-1, 0, 0, 8, 8, 8, 8, 8,-1,-1,-1,-1, 8, 8, 8, 8,-1,-1,-1,-1, 4, 7,-1,-1,-1, 4, 0, 0, 0, 7,-1,-1,-1,0,
0, 0, 0,-1,-1,-1, 8, 8, 8, 7,-1,-1,-1,-1,-1,-1,-1,-1,-1,-1,-1,-1,-1,-1,-1, 4, 7,-1,-1,-1,-1, 0, 0, 0, 7,-1,-1,-1,-1,0,
0, 0, 0,-1,-1,-1,-1,-1,-1,-1,-1,-1,-1,-1,-1,-1,-1,-1,-1,-1,-1,-1,-1,-1, 4, 7,-1,-1,-1,-1, 4, 0, 0, 7,-1,-1,-1,-1,-1,0,
0, 0, 0,-1,-1,-1,-1,-1,-1,-1,-1,-1,-1,-1,-1,-1,-1,-1,-1,-1,-1,-1,-1, 4, 7,-1,-1,-1,-1, 4, 0, 0, 7,-1,-1,-1,-1,-1,-1,0,
0, 0, 0,-1,-1,-1,-1,-1,-1,-1,-1,-1,-1,-1,-1,-1,-1,-1,-1,-1,-1,-1,-1, 7,-1,-1,-1,-1, 4, 0, 0, 7,-1,-1,-1,-1,-1,-1,-1,0,
0, 0, 0,-1,-1,-1,-1,-1,-1,-1,-1,-1,-1,-1,-1,-1,-1,-1,-1,-1,-1,-1,-1,-1,-1,-1,-1, 4, 0, 0, 7,-1,-1,-1,-1,-1,-1,-1,-1,0,
0, 0, 0, 8, 8, 8, 8, 8, 8, 8, 8, 8, 8, 8, 8,-1,-1,-1,-1,-1,-1,-1,-1,-1,-1,-1,-1,-1,-1,-1,-1,-1,-1,-1,-1,-1,-1,-1,-1,0,
0, 0, 0, 0, 0, 0, 0, 0, 0, 0, 0, 0, 0, 7,-1,-1,-1,-1,-1,-1,-1,-1,-1,-1,-1,-1,-1,-1,-1,-1,-1,-1,-1,-1,-1,-1,-1,-1,-1,0,
0, 0, 0, 0, 0, 0, 0, 0, 0, 0, 0, 0, 7,-1,-1,-1,-1,-1,-1,-1,-1,-1,-1,-1,-1,-1,-1,-1,-1,-1,-1,-1,-1,-1,-1,-1,-1,-1,-1,0,
0, 0, 0, 0, 0, 0, 0, 0, 0, 0, 0, 7,-1,-1,-1,-1,-1,-1,-1,-1,-1,-1,-1,-1,-1,-1,-1,-1,-1,-1,-1,-1,-1,-1,-1,-1,-1,-1,-1,0,
0, 0, 0, 0, 0, 0, 0, 0, 0, 0, 7,-1,-1,-1,-1,-1,-1,-1, 4,-1,-1,-1,-1,-1,-1,-1,-1,-1,-1,-1,-1,-1,-1,-1,-1,-1,-1,-1,-1,0,
0, 0, 0, 0, 0, 0, 0, 0, 0, 7,-1,-1,-1,-1,-1,-1,-1, 4, 0,-1,-1,-1,-1,-1,-1,-1,-1,-1, 4, 8, 8, 8, 8, 8, 8, 8, 8, 8, 8,0,
0, 0, 0, 0, 0, 0, 0, 0, 7,-1,-1,-1,-1,-1,-1,-1, 4, 0, 0,-1,-1,-1,-1,-1,-1,-1,-1, 4, 0, 0, 0, 0, 0, 0, 0, 0, 0, 0, 0,0,
0, 0, 0, 0, 0, 0, 0, 7,-1,-1,-1,-1,-1,-1,-1, 4, 0, 8, 8,-1,-1,-1,-1,-1,-1,-1, 4, 0, 0, 0, 0, 0, 0, 0, 0, 0, 0, 0, 0,0,
0, 0, 0, 0, 0, 0, 7,-1,-1,-1,-1,-1,-1,-1,-1, 0, 0,-1,-1,-1,-1,-1,-1,-1,-1, 4, 0, 0, 0, 0, 0, 0, 0, 0, 0, 0, 0, 0, 0,0,
0, 0, 0, 0, 0, 7,-1,-1,-1,-1,-1,-1,-1,-1,-1, 0, 0,-1,-1,-1,-1,-1,-1,-1, 4, 0, 0, 0, 0, 0, 0, 0, 0, 0, 0, 0, 0, 0, 0,0,
0, 0, 0, 0, 0,-1,-1,-1,-1,-1,-1,-1,-1,-1,-1, 0, 0,-1,-1,-1,-1,-1,-1, 4, 0, 0, 0, 0, 0, 0, 0, 0, 0, 0, 0, 0, 0, 0, 0,0,
0, 0, 0, 0, 0,-1,-1,-1,-1,-1,-1,-1,-1,-1,-1, 0, 0, 8, 8,-1,-1,-1, 4, 0, 0, 0, 0, 0, 0, 0, 0, 0, 0, 0, 0, 0, 0, 0, 0,0,